<?xml version="1.0" standalone="no"?>
<!DOCTYPE svg PUBLIC "-//W3C//DTD SVG 1.1//EN" "http://www.w3.org/Graphics/SVG/1.1/DTD/svg11.dtd" >
<svg xmlns="http://www.w3.org/2000/svg">
<metadata>Generated by IcoMoon</metadata>
<defs>
<font id="mega-icon" horiz-adv-x="1024">
<font-face units-per-em="1024" ascent="960" descent="-64" />
<missing-glyph horiz-adv-x="1024" />
<glyph unicode="&#x20;" horiz-adv-x="512" d="" />
<glyph unicode="&#xe900;" glyph-name="mega-avancar" horiz-adv-x="635" d="M604.938 408.212l-455.68-455.731c-22.016-21.965-57.651-21.965-79.616 0l-53.146 53.146c-21.965 21.965-22.016 57.498-0.102 79.514l361.165 362.854-361.165 362.854c-21.914 22.016-21.862 57.549 0.102 79.514l53.146 53.146c21.965 21.965 57.6 21.965 79.616 0l455.68-455.731c22.016-21.965 22.016-57.6 0-79.565z" />
<glyph unicode="&#xe901;" glyph-name="mega-combo" horiz-adv-x="655" d="M638.035 264.49c-9.737 17.611-28.032 28.582-47.835 28.498l-535.406-1.041c-19.502 0-37.522-10.718-47.342-28.047-4.937-8.693-7.406-18.483-7.406-28.216 0-9.537 2.386-19.186 7.186-27.822l259.502-243.369c9.627-17.385 27.511-28.244 47.013-28.498 19.474-0.197 37.632 10.156 47.671 27.26l275.877 244.466c10.231 17.385 10.505 39.075 0.741 56.77zM7.126 643.647c9.737-16.353 28.032-26.54 47.835-26.462l535.406 0.967c19.502 0 37.495 9.953 47.342 26.044 4.937 8.072 7.406 17.162 7.406 26.201 0 8.856-2.386 17.816-7.186 25.835l-259.502 225.985c-9.627 16.144-27.511 26.227-47.013 26.462-19.474 0.183-37.632-9.43-47.671-25.313l-275.877-227.004c-10.231-16.144-10.505-36.284-0.741-52.715z" />
<glyph unicode="&#xe902;" glyph-name="mega-copy" horiz-adv-x="901" d="M881.941 814.058l-131.882 131.884c-9.002 9.002-21.212 14.058-33.942 14.058h-12.118v-192h192v12.118c0 12.73-5.056 24.94-14.058 33.94zM639.999 752v208h-336c-26.51 0-48-21.49-48-48v-736c0-26.51 21.49-48 48-48h544c26.51 0 48 21.49 48 48v528h-208c-26.4 0-48 21.6-48 48zM639.999 64v-80c0-26.51-21.49-48-48-48h-544c-26.51 0-48 21.49-48 48v736c0 26.51 21.49 48 48 48h144v-592c0-61.758 50.242-112 112-112h336z" />
<glyph unicode="&#xe903;" glyph-name="mega-filtro" d="M975.961 960.007h-927.881c-42.667 0-64.171-51.746-33.929-81.92l369.869-370.005v-412.058c0-15.701 7.578-30.379 20.412-39.322l160.017-112.026c31.607-22.050 75.571 0.341 75.571 39.39v524.015l369.869 370.005c30.106 30.106 8.738 81.92-33.929 81.92z" />
<glyph unicode="&#xe904;" glyph-name="mega-menu" horiz-adv-x="1413" d="M73.143-64c-40.396 0-73.143 32.747-73.143 73.143s32.747 73.143 73.143 73.143h1262.665c40.396 0 73.143-32.747 73.143-73.143s-32.747-73.143-73.143-73.143h-1262.665zM73.143 374.857c-40.396 0-73.143 32.747-73.143 73.143s32.747 73.143 73.143 73.143h1262.665c40.396 0 73.143-32.747 73.143-73.143s-32.747-73.143-73.143-73.143h-1262.665zM73.143 813.714c-40.396 0-73.143 32.747-73.143 73.143s32.747 73.143 73.143 73.143h1262.665c40.396 0 73.143-32.747 73.143-73.143s-32.747-73.143-73.143-73.143h-1262.665z" />
<glyph unicode="&#xe905;" glyph-name="mega-pendencias" horiz-adv-x="1707" d="M730.54 344.204c-7.016 6.282-16.083 9.46-25.459 8.929-9.398-0.526-18.023-4.678-24.27-11.678-42.634-47.635-104.164-74.958-168.811-74.958s-126.177 27.32-168.822 74.977c-12.968 14.439-35.271 15.663-49.705 2.742-14.471-12.927-15.712-35.233-2.758-49.734 55.979-62.545 136.636-98.418 221.284-98.418 84.653 0 165.308 35.873 221.295 98.426 12.93 14.474 11.692 36.777-2.755 49.715zM512 6.434c-243.479 0-441.566 198.084-441.566 441.566 0 243.479 198.087 441.566 441.566 441.566 243.482 0 441.566-198.087 441.566-441.566 0-243.482-198.084-441.566-441.566-441.566zM512 960c-282.318 0-512-229.682-512-512s229.682-512 512-512c282.318 0 512 229.682 512 512s-229.682 512-512 512zM685.376 613.249c-67.218 0-121.905-54.686-121.905-121.905 0-19.418 15.799-35.217 35.217-35.217s35.217 15.799 35.217 35.217c0 28.382 23.089 51.471 51.471 51.471s51.471-23.089 51.471-51.471c0-19.418 15.799-35.217 35.217-35.217s35.217 15.799 35.217 35.217c0 67.218-54.686 121.905-121.905 121.905zM338.624 542.815c28.382 0 51.471-23.089 51.471-51.471 0-19.418 15.799-35.217 35.217-35.217s35.217 15.799 35.217 35.217c0 67.218-54.686 121.905-121.905 121.905s-121.905-54.686-121.905-121.905c0-19.418 15.799-35.217 35.217-35.217s35.217 15.799 35.217 35.217c0 28.382 23.089 51.471 51.471 51.471zM1269.326 570.389c-3.37-34.064 8.846-67.441 32.827-90.42-21.288-20.273-33.384-48.967-33.384-79.618 0-30.641 12.097-59.335 33.374-79.604-21.278-20.269-33.374-48.963-33.374-79.604 0-30.668 12.113-59.381 33.424-79.654-22.336-21.745-34.449-51.776-33.57-82.778-60.44 43.915-96.242 113.804-96.268 188.967v504.16c0 41.152 33.477 74.629 74.629 74.629 41.149 0 74.629-33.477 74.629-74.629v-117.559c-29.344-17.646-48.817-48.787-52.287-83.89zM1591.935 352.257l-212.072-0.007c-33.006 1.373-48.031 25.898-48.025 48.104 0.003 12.239 4.246 23.732 11.941 32.356 8.644 9.682 21.118 15.125 35.878 15.735h212.278c26.518 0 48.094-21.576 48.094-48.094s-21.576-48.094-48.094-48.094zM1591.935 193.048l-212.072-0.007c-33.006 1.373-48.031 25.898-48.025 48.104 0.003 12.239 4.246 23.732 11.941 32.356 8.644 9.682 21.118 15.125 35.878 15.735h212.278c26.518 0 48.094-21.576 48.094-48.094s-21.576-48.094-48.094-48.094zM1379.618 130.028l212.109 0.003c14.979-0.62 27.46-6.067 36.101-15.748 7.692-8.624 11.931-20.113 11.927-32.352 0-12.242-4.246-23.732-11.944-32.359-8.62-9.659-21.062-15.098-35.978-15.732h-159.155c-21.48-0.206-50.821-0.498-73.899 4.839-16.564 7.974-27.228 24.923-27.215 43.335 0.023 26.485 21.576 48.015 48.054 48.015zM1627.81 527.2c-8.64-9.682-21.118-15.125-35.875-15.735h-212.278c-26.518 0-48.094 21.576-48.094 48.094s21.576 48.094 48.094 48.094l212.069 0.003c33.006-1.373 48.035-25.895 48.028-48.101-0.003-12.242-4.249-23.732-11.944-32.356zM1669.41 161.502c21.304 20.269 33.414 48.98 33.414 79.641 0 30.641-12.097 59.335-33.374 79.604 21.284 20.276 33.377 48.973 33.374 79.624-0.003 30.661-12.116 59.365-33.421 79.631 21.47 20.866 33.666 49.607 33.649 79.7-0.046 61.209-49.852 110.972-111.045 110.972h-207.376l-0.003 101.369c-3.897 93.966-74.072 136.757-137.636 136.757h-0.020c-63.574-0.010-133.765-42.807-137.639-136.962v-504.157c-0.003-3.178 0.056-6.352 0.159-9.529l0.066-1.831c0.806-21.387 3.924-42.638 9.277-63.272h-0.398l1.745-6.305c5.174-18.677 12.242-36.847 21.006-54.005l1.386-2.71h0.643c13.334-25.327 30.223-48.588 50.287-69.213 57.673-57.763 137.755-89.727 225.506-90.009l172.94 0.013c47.298 0.159 87.014 27.828 103.651 72.208 15.974 42.618 5.907 87.505-26.193 118.474z" />
<glyph unicode="&#xe906;" glyph-name="mega-pref" horiz-adv-x="1147" d="M592.844 771.37c0-14.881-12.066-26.947-26.947-26.947s-26.947 12.066-26.947 26.947c0 14.884 12.066 26.947 26.947 26.947s26.947-12.063 26.947-26.947zM485.053 771.37c0-44.645 36.199-80.841 80.844-80.841s80.844 36.196 80.844 80.841c0 44.645-36.199 80.841-80.844 80.841s-80.844-36.196-80.844-80.841zM1077.897 663.582h-1024.003v61.736l512.003 179.173 512-179.173v-61.736zM107.789 582.738v26.947h916.214v-26.947h-916.214zM808.424 97.682v53.897h161.685v-53.897h-161.685zM835.371 205.476v215.579h107.791v-215.579h-107.791zM808.424 474.95v53.894h161.685v-53.894h-161.685zM781.474 421.053v-215.577c-14.878 0-26.944-12.069-26.944-26.947v-80.847h-53.897v80.847c0 14.878-12.063 26.947-26.947 26.947v215.577c14.884 0 26.947 12.069 26.947 26.95v80.841h53.897v-80.841c0-14.881 12.066-26.95 26.944-26.95zM485.053 97.682v53.897h161.685v-53.897h-161.685zM512.003 205.476v215.579h107.788v-215.579h-107.788zM485.053 474.95v53.894h161.685v-53.894h-161.685zM458.106 421.053v-215.577c-14.881 0-26.947-12.069-26.947-26.947v-80.847h-53.894v80.847c0 14.878-12.066 26.947-26.947 26.947v215.577c14.881 0 26.947 12.069 26.947 26.95v80.841h53.894v-80.841c0-14.881 12.066-26.95 26.947-26.95zM161.683 97.682v53.897h161.685v-53.897h-161.685zM188.633 205.476v215.579h107.788v-215.579h-107.788zM161.686 474.95v53.894h161.685v-53.894h-161.685zM1024.003 43.791v-26.95c0-14.878-12.066-26.947-26.947-26.947h-862.32c-14.881 0-26.947 12.069-26.947 26.947v26.95h916.214zM1113.74 769.859l-538.95 188.63c-5.761 2.015-12.028 2.015-17.789 0l-538.95-188.63c-10.815-3.776-18.051-13.975-18.051-25.436v-107.788c0-14.884 12.066-26.95 26.947-26.95h26.947v-53.894c0-14.881 12.066-26.947 26.947-26.947h26.947v-80.841c0-14.881 12.066-26.95 26.947-26.95v-215.577c-14.881 0-26.947-12.069-26.947-26.947v-80.847h-26.947c-14.881 0-26.947-12.063-26.947-26.944v-53.897c0-44.645 36.199-80.841 80.841-80.841h862.32c44.643 0 80.841 36.196 80.841 80.841v53.897c0 14.881-12.063 26.944-26.947 26.944h-26.947v80.847c0 14.878-12.066 26.947-26.947 26.947v215.577c14.881 0 26.947 12.069 26.947 26.95v80.841h26.947c14.884 0 26.947 12.066 26.947 26.947v53.894h26.95c14.878 0 26.947 12.066 26.947 26.95v107.788c0 11.461-7.239 21.66-18.054 25.436z" />
<glyph unicode="&#xe907;" glyph-name="mega-voltar" horiz-adv-x="1285" d="M22.207 661.558l271.299 270.604c47.702 47.565 129.295 13.855 129.295-53.394v-157.395h453.041c215.887 0 391.529-175.052 391.529-390.404 0-215.267-175.641-390.404-391.529-390.404h-280.45c-62.784 0-113.536 50.691-113.536 113.294 0 62.519 50.752 113.209 113.536 113.209h280.45c90.744 0 164.457 73.586 164.457 163.9 0 90.399-73.713 163.985-164.457 163.985h-453.041v-157.31c0-67.25-81.593-100.959-129.295-53.394l-271.299 270.604c-29.655 29.401-29.655 77.219 0 106.704z" />
<glyph unicode="&#xe908;" glyph-name="mega-voltar2" horiz-adv-x="566" d="M543.901 409.109l-438.468-438.468c-23.635-23.635-61.954-23.635-85.588 0s-23.635 61.954 0 85.588l395.674 395.674-384.175 384.175c-23.635 23.635-23.635 61.954 0 85.588s61.954 23.635 85.588 0l426.969-426.969c23.635-23.635 23.635-61.954 0-85.588z" />
<glyph unicode="&#xe909;" glyph-name="mega-voltar3" horiz-adv-x="566" d="M17.726 486.891l438.468 438.468c23.635 23.635 61.954 23.635 85.588 0s23.635-61.954 0-85.588l-395.674-395.674 384.175-384.175c23.635-23.635 23.635-61.954 0-85.588s-61.954-23.635-85.588 0l-426.969 426.969c-23.635 23.635-23.635 61.954 0 85.588z" />
</font></defs></svg>